{
    "data": [
        {
            "account_no": "35647246998",
            "account_name": "Shruti Sharma",
            "bank_name": "HDFC",
            "email": "Shruti@gmail.com",
            "phone_no": 1234567890,
            "address": "Pune, Maharashtra",
            "pin": 766549,
            "total_amount": 172000,
            "IFSC_CODE": 96695,
            "is_active": true,
            "account_type": "savings"
        },
        {
            "account_no": "35647246399",
            "account_name": "Saloni Mehta",
            "bank_name": "HDFC",
            "email": "Saloni@gmail.com",
            "phone_no": 8963842899,
            "address": "Pimpri, Maharashtra",
            "pin": 696785,
            "total_amount": 57859,
            "IFSC_CODE": 96695,
            "is_active": true,
            "account_type": "savings"
        },
        {
            "account_no": "83740915296",
            "account_name": "Vedant Kadam",
            "bank_name": "HDFC",
            "email": "VK@gmail.com",
            "phone_no": 3456789990,
            "address": "chiplun",
            "pin": 123456,
            "total_amount": 47000,
            "IFSC_CODE": 96695,
            "is_active": true,
            "account_type": "savings"
        },
        {
            "account_no": "74092365801",
            "account_name": "Rupesh Mahadik",
            "bank_name": "HDFC",
            "email": "rpeshM@gmail.com",
            "phone_no": 9087654321,
            "address": "Mumbai, Maharashtra",
            "pin": 765433,
            "total_amount": 80000,
            "IFSC_CODE": 96695,
            "is_active": true,
            "account_type": "savings"
        },
        {
            "account_no": "36804217859",
            "account_name": "Pradnya Joshi",
            "bank_name": "HDFC",
            "email": "prj@gmail.com",
            "phone_no": 6789054321,
            "address": "kolhapur",
            "pin": 897642,
            "total_amount": 20000,
            "IFSC_CODE": 96695,
            "is_active": true,
            "account_type": "savings"
        }
    ]
}